%YAML 1.1
%TAG !u! tag:unity3d.com,2011:
--- !u!21 &2100000
Material:
  serializedVersion: 6
  m_ObjectHideFlags: 0
  m_CorrespondingSourceObject: {fileID: 0}
  m_PrefabInstance: {fileID: 0}
  m_PrefabAsset: {fileID: 0}
  m_Name: Jiggler Turquoise
  m_Shader: {fileID: -6465566751694194690, guid: e4d1f601f13736049a20cc3ff43cec24,
    type: 3}
  m_ShaderKeywords: 
  m_LightmapFlags: 4
  m_EnableInstancingVariants: 0
  m_DoubleSidedGI: 0
  m_CustomRenderQueue: -1
  stringTagMap: {}
  disabledShaderPasses: []
  m_SavedProperties:
    serializedVersion: 3
    m_TexEnvs: []
    m_Floats:
    - Vector1_1314EB07: 0
    - Vector1_3C3ACF84: 1.38
    - Vector1_47611390: 0.02
    - Vector1_4F21E4E5: 0
    - Vector1_56849D7C: 2
    - Vector1_BD1E19C9: 0
    m_Colors:
    - Color_BC7502EF: {r: 1, g: 0.21698102, b: 0.21698102, a: 0}
    - Color_D9C63D1F: {r: 0.30838376, g: 0.7264151, b: 0.66342413, a: 1}
