%YAML 1.1
%TAG !u! tag:unity3d.com,2011:
--- !u!21 &2100000
Material:
  serializedVersion: 6
  m_ObjectHideFlags: 0
  m_CorrespondingSourceObject: {fileID: 0}
  m_PrefabInstance: {fileID: 0}
  m_PrefabAsset: {fileID: 0}
  m_Name: Void Pulsar
  m_Shader: {fileID: -6465566751694194690, guid: 90da2dce5b2563e48b890ef59854517a,
    type: 3}
  m_ShaderKeywords: 
  m_LightmapFlags: 4
  m_EnableInstancingVariants: 0
  m_DoubleSidedGI: 0
  m_CustomRenderQueue: -1
  stringTagMap: {}
  disabledShaderPasses: []
  m_SavedProperties:
    serializedVersion: 3
    m_TexEnvs: []
    m_Floats:
    - Vector1_175313F6: 0.18
    - Vector1_3C3ACF84: 1.2
    - Vector1_47611390: 0.08
    - Vector1_56849D7C: 1
    - Vector1_A742F9CA: 0
    m_Colors:
    - Color_D9C63D1F: {r: 0, g: 0, b: 0, a: 0}
